Single cell Analysis of human kidney tumours
…
## Calculating cluster 15

## Calculating cluster 16

## Calculating cluster 17

## Calculating cluster 18

## Calculating cluster 19

data3.markers %>%
    group_by(cluster) %>%
    slice_max(n = 2, order_by = avg_log2FC)

## # A tibble: 40 x 7
## # Groups:   cluster [20]
##        p_val avg_log2FC pct.1 pct.2 p_val_adj cluster gene
##        <dbl>      <dbl> <dbl> <dbl>     <dbl> <fct>   <chr>
##  1 1.80e-186       1.91 0.865 0.367 5.92e-182 0       ENSG00000078596
##  2 0               1.70 0.884 0.216 0         0       ENSG00000166426
##  3 0               2.00 0.993 0.157 0         1       ENSG00000075891
##  4 0               1.93 0.923 0.131 0         1       ENSG00000124107
##  5 3.96e-209       2.11 0.96  0.454 1.30e-204 2       ENSG00000112715
##  6 3.06e-166       1.98 1     0.883 1.01e-161 2       ENSG00000167244
##  7 3.07e-243       2.77 0.979 0.413 1.01e-238 3       ENSG00000139219
##  8 5.32e-191       2.22 0.798 0.214 1.75e-186 3       ENSG00000119888
##  9 1.73e-127       2.54 0.947 0.568 5.68e-123 4       ENSG00000113296
## 10 1.16e-145       2.44 0.909 0.446 3.81e-141 4       ENSG00000041982
## # ... with 30 more rows
…
## Calculating cluster 8

## Calculating cluster 9

## Calculating cluster 10

## Calculating cluster 11

## Calculating cluster 12

pca.markers %>%
    group_by(cluster) %>%
    slice_max(n = 2, order_by = avg_log2FC)

## # A tibble: 26 x 7
## # Groups:   cluster [13]
##        p_val avg_log2FC pct.1 pct.2 p_val_adj cluster gene
##        <dbl>      <dbl> <dbl> <dbl>     <dbl> <fct>   <chr>
##  1 3.43e-193       1.67 0.83  0.343 1.13e-188 0       ENSG00000078596
##  2 6.61e-234       1.54 0.996 0.655 2.18e-229 0       ENSG00000111341
##  3 3.75e-229       2.18 0.914 0.444 1.23e-224 1       ENSG00000112715
##  4 1.87e-260       2.03 0.943 0.38  6.15e-256 1       ENSG00000185633
##  5 0               2.01 0.996 0.156 0         2       ENSG00000075891
##  6 0               1.90 0.94  0.128 0         2       ENSG00000124107
##  7 8.83e-198       2.72 0.274 0.009 2.91e-193 3       ENSG00000181449
##  8 3.68e-  8       1.98 0.284 0.577 1.21e-  3 3       ENSG00000164687
##  9 1.74e- 14       1.90 0.571 0.571 5.74e- 10 4       ENSG00000197943
## 10 5.85e- 50       1.87 0.754 0.58  1.92e- 45 4       ENSG00000113296
## # ... with 16 more rows
…
